IS415-GAA - In-Class Exercise 7: Global and Local Measures of Spatial Association - sfdep methods
…
4 Computing Local Moran’s I

lisa <- wm_q %>%
  mutate(local_moran = local_moran(
    GDPPC, nb, wt, nsim = 99),
      .before = 1) %>%
  unnest(local_moran)
lisa

Simple feature collection with 88 features and 20 fields
Geometry type: POLYGON
Dimension:     XY
Bounding box:  xmin: 108.7831 ymin: 24.6342 xmax: 114.2544 ymax: 30.12812
Geodetic CRS:  WGS 84
# A tibble: 88 × 21
         ii        eii   var_ii    z_ii    p_ii p_ii_…¹ p_fol…² skewn…³ kurtosis
      <dbl>      <dbl>    <dbl>   <dbl>   <dbl>   <dbl>   <dbl>   <dbl>    <dbl>
 1 -0.00147  0.00177    4.18e-4 -0.158  0.874      0.82    0.41  -0.812  0.652  
 2  0.0259   0.00641    1.05e-2  0.190  0.849      0.96    0.48  -1.09   1.89   
 3 -0.0120  -0.0374     1.02e-1  0.0796 0.937      0.76    0.38   0.824  0.0461 
 4  0.00102 -0.0000349  4.37e-6  0.506  0.613      0.64    0.32   1.04   1.61   
 5  0.0148  -0.00340    1.65e-3  0.449  0.654      0.5     0.25   1.64   3.96   
 6 -0.0388  -0.00339    5.45e-3 -0.480  0.631      0.82    0.41   0.614 -0.264  
 7  3.37    -0.198      1.41e+0  3.00   0.00266    0.08    0.04   1.46   2.74   
 8  1.56    -0.265      8.04e-1  2.04   0.0417     0.08    0.04   0.459 -0.519  
 9  4.42     0.0450     1.79e+0  3.27   0.00108    0.02    0.01   0.746 -0.00582
10 -0.399   -0.0505     8.59e-2 -1.19   0.234      0.28    0.14  -0.685  0.134  
# … with 78 more rows, 12 more variables: mean <fct>, median <fct>,
#   pysal <fct>, nb <nb>, wt <list>, NAME_2 <chr>, ID_3 <int>, NAME_3 <chr>,
#   ENGTYPE_3 <chr>, County <chr>, GDPPC <dbl>, geometry <POLYGON [°]>, and
#   abbreviated variable names ¹​p_ii_sim, ²​p_folded_sim, ³​skewness
…
HCSA <- wm_idw %>% 
  mutate(local_Gi = local_gstar_perm(
    GDPPC, nb, wt, nsim = 99),
         .before = 1) %>%
  unnest(local_Gi)
HCSA

Simple feature collection with 88 features and 16 fields
Geometry type: POLYGON
Dimension:     XY
Bounding box:  xmin: 108.7831 ymin: 24.6342 xmax: 114.2544 ymax: 30.12812
Geodetic CRS:  WGS 84
# A tibble: 88 × 17
    gi_star   e_gi     var_gi  p_value p_sim p_fol…¹ skewn…² kurto…³ nb    wts  
      <dbl>  <dbl>      <dbl>    <dbl> <dbl>   <dbl>   <dbl>   <dbl> <nb>  <lis>
 1 -0.00567 0.0115 0.00000812  9.95e-1  0.82    0.41   1.03    1.23  <int> <dbl>
 2 -0.235   0.0110 0.00000581  8.14e-1  1       0.5    0.912   1.05  <int> <dbl>
 3  0.298   0.0114 0.00000776  7.65e-1  0.7     0.35   0.455  -0.732 <int> <dbl>
 4  0.145   0.0121 0.0000111   8.84e-1  0.64    0.32   0.900   0.726 <int> <dbl>
 5  0.356   0.0113 0.0000119   7.21e-1  0.64    0.32   1.08    1.31  <int> <dbl>
 6 -0.480   0.0116 0.00000706  6.31e-1  0.82    0.41   0.364  -0.676 <int> <dbl>
 7  3.66    0.0116 0.00000825  2.47e-4  0.02    0.01   0.909   0.664 <int> <dbl>
 8  2.14    0.0116 0.00000714  3.26e-2  0.16    0.08   1.13    1.48  <int> <dbl>
 9  4.55    0.0113 0.00000656  5.28e-6  0.02    0.01   1.36    4.14  <int> <dbl>
10  1.61    0.0109 0.00000341  1.08e-1  0.18    0.09   0.269  -0.396 <int> <dbl>
# … with 78 more rows, 7 more variables: NAME_2 <chr>, ID_3 <int>,
#   NAME_3 <chr>, ENGTYPE_3 <chr>, County <chr>, GDPPC <dbl>,
#   geometry <POLYGON [°]>, and abbreviated variable names ¹​p_folded_sim,
#   ²​skewness, ³​kurtosis
…
6 Emerging Hotspot Analysis

pacman::p_load(sf, sfdep, tmap, plotly, tidyverse)

GDPPC <- read_csv("data/aspatial/Hunan_GDPPC.csv")

6.1 Creating a Time Series Cube

GDPPC_st <- spacetime(GDPPC, hunan,
                      .loc_col = "County",
                      .time_col = "Year")
GDPPC_st

# A tibble: 1,496 × 3
    Year County    GDPPC
 * <dbl> <chr>     <dbl>
 1  2005 Longshan   3469
 2  2005 Changsha  24612
 3  2005 Wangcheng 14659
 4  2005 Ningxiang 11687
 5  2005 Liuyang   13406
 6  2005 Zhuzhou    8546
 7  2005 You       10944
 8  2005 Chaling    8040
 9  2005 Yanling    7383
10  2005 Liling    11688
# … with 1,486 more rows
…
