IS415-GAA - Take Home Exercise 2: Spatio-temporal Analysis of Vaccination Trends in DKI Jakarta
…
Evaluating host and cold spot trends using Mann-Kendall trend test

Categorising each study area location by referring to the resultant trend z-score and p-value for each location with data, and with the hot spot z-score and p-value for each bin.

11.1 Building a time series cube

spacetime() of sfdep used used to create an spatio-temporal cube. After which is_spacetime_cube() is used to verify if the spatio-temporal cube create is indeed a space-time cube object.

vaccine_rate_st <- spacetime(vaccine_rate, bd_jakarta,
                             .loc_col = "Sub_District",
                             .time_col = "Date")

vaccine_rate_st

# A tibble: 3,132 x 3
# Groups:   Sub_District [261]
   Sub_District Date       vaccination_rate
 * <chr>        <date>                <dbl>
 1 ANCOL        2021-07-31            0.485
 2 ANCOL        2021-08-31            0.616
 3 ANCOL        2021-09-30            0.721
 4 ANCOL        2021-10-31            0.750
 5 ANCOL        2021-11-30            0.769
 6 ANCOL        2021-12-31            0.789
 7 ANCOL        2022-01-31            0.806
 8 ANCOL        2022-02-27            0.808
 9 ANCOL        2022-03-31            0.811
10 ANCOL        2022-04-30            0.814
# ... with 3,122 more rows
…
